{
    "prepare_queue": {
        "installed": [],
        "uninstalled": []
    },
    "config_munge": {
        "files": {
            "config.xml": {
                "parents": {
                    "/*": [
                        {
                            "xml": "<feature name=\"IBMBluemixHybrid\"><param name=\"ios-package\" value=\"CDVIBMBluemix\" /></feature>",
                            "count": 1
                        },
                        {
                            "xml": "<feature name=\"IBMCloudCodeHybrid\"><param name=\"ios-package\" value=\"CDVIBMCloudCode\" /></feature>",
                            "count": 1
                        },
                        {
                            "xml": "<feature name=\"IBMDataHybrid\"><param name=\"ios-package\" value=\"CDVIBMData\" /></feature>",
                            "count": 1
                        },
                        {
                            "xml": "<feature name=\"IBMQueryHybrid\"><param name=\"ios-package\" value=\"CDVIBMQuery\" /></feature>",
                            "count": 1
                        },
                        {
                            "xml": "<feature name=\"Keyboard\"><param name=\"ios-package\" onload=\"true\" value=\"IonicKeyboard\" /></feature>",
                            "count": 1
                        },
                        {
                            "xml": "<feature name=\"Calendar\"><param name=\"ios-package\" value=\"Calendar\" /></feature>",
                            "count": 1
                        },
                        {
                            "xml": "<feature name=\"SocialSharing\"><param name=\"ios-package\" value=\"SocialSharing\" /></feature>",
                            "count": 1
                        },
                        {
                            "xml": "<feature name=\"Camera\"><param name=\"ios-package\" value=\"CDVCamera\" /></feature>",
                            "count": 1
                        },
                        {
                            "xml": "<feature name=\"Console\"><param name=\"ios-package\" value=\"CDVLogger\" /></feature>",
                            "count": 1
                        },
                        {
                            "xml": "<feature name=\"Device\"><param name=\"ios-package\" value=\"CDVDevice\" /></feature>",
                            "count": 1
                        },
                        {
                            "xml": "<feature name=\"Geolocation\"><param name=\"ios-package\" value=\"CDVLocation\" /></feature>",
                            "count": 1
                        },
                        {
                            "xml": "<feature name=\"InAppBrowser\"><param name=\"ios-package\" value=\"CDVInAppBrowser\" /></feature>",
                            "count": 1
                        }
                    ]
                }
            },
            "framework": {
                "parents": {
                    "libsqlite3.dylib": [
                        {
                            "xml": "false",
                            "count": 1
                        }
                    ],
                    "EventKit.framework": [
                        {
                            "xml": "false",
                            "count": 1
                        }
                    ],
                    "EventKitUI.framework": [
                        {
                            "xml": "false",
                            "count": 1
                        }
                    ],
                    "Social.framework": [
                        {
                            "xml": "true",
                            "count": 1
                        }
                    ],
                    "MessageUI.framework": [
                        {
                            "xml": "true",
                            "count": 1
                        }
                    ],
                    "ImageIO.framework": [
                        {
                            "xml": "true",
                            "count": 1
                        }
                    ],
                    "CoreLocation.framework": [
                        {
                            "xml": "false",
                            "count": 1
                        }
                    ],
                    "CoreGraphics.framework": [
                        {
                            "xml": "false",
                            "count": 2
                        }
                    ],
                    "AssetsLibrary.framework": [
                        {
                            "xml": "false",
                            "count": 1
                        }
                    ],
                    "MobileCoreServices.framework": [
                        {
                            "xml": "false",
                            "count": 1
                        }
                    ]
                }
            }
        }
    },
    "installed_plugins": {
        "com.ibm.mobile.cordova.ibmbluemix": {
            "PACKAGE_NAME": "com.ionicframework.starter"
        },
        "com.ibm.mobile.cordova.ibmcloudcode": {
            "PACKAGE_NAME": "com.ionicframework.starter"
        },
        "com.ibm.mobile.cordova.ibmdata": {
            "PACKAGE_NAME": "com.ionicframework.starter"
        },
        "com.ionic.keyboard": {
            "PACKAGE_NAME": "com.ionicframework.starter"
        },
        "nl.x-services.plugins.calendar": {
            "PACKAGE_NAME": "com.ionicframework.starter"
        },
        "nl.x-services.plugins.socialsharing": {
            "PACKAGE_NAME": "com.ionicframework.starter"
        },
        "org.apache.cordova.camera": {
            "PACKAGE_NAME": "com.ionicframework.starter"
        },
        "org.apache.cordova.console": {
            "PACKAGE_NAME": "com.ionicframework.starter"
        },
        "org.apache.cordova.device": {
            "PACKAGE_NAME": "com.ionicframework.starter"
        },
        "org.apache.cordova.geolocation": {
            "PACKAGE_NAME": "com.ionicframework.starter"
        },
        "org.apache.cordova.inappbrowser": {
            "PACKAGE_NAME": "com.ionicframework.starter"
        }
    },
    "dependent_plugins": {}
}